…
``` r
range(pull(nyc_airbnb, stars), na.rm = T)
```

    ## [1] 1 5

``` r
nyc_airbnb %>% 
  filter(stars == 1)
```

    ## # A tibble: 21 x 18
    ##         id review_scores_l~ name   host_id host_name borough neighbourhood   lat
    ##      <dbl>            <dbl> <chr>    <dbl> <chr>     <chr>   <chr>         <dbl>
    ##  1  6.94e6                2 Share~  3.64e7 Vinayaka  Queens  Ozone Park    -73.8
    ##  2  1.27e6                2 1 Bed~  2.25e6 Nerenda   Brookl~ Bedford-Stuy~ -73.9
    ##  3  3.69e6                2 THE B~  1.77e7 Arleta    Brookl~ Bedford-Stuy~ -73.9
    ##  4  1.28e7                2 Cozy ~  5.51e7 Meifang   Brookl~ Borough Park  -74.0
    ##  5  1.74e7                2 Beaut~  1.18e8 Monique ~ Brookl~ Brownsville   -73.9
    ##  6  9.13e6                2 Priva~  1.75e7 Marco     Brookl~ Bushwick      -73.9
    ##  7  9.15e6                2 Beaut~  4.76e7 Colin     Brookl~ Bushwick      -73.9
    ##  8  1.80e7                2 Moder~  1.23e8 Jason     Brookl~ Clinton Hill  -74.0
    ##  9  1.63e7                2 Comfo~  4.26e7 Carla     Brookl~ East New York -73.9
    ## 10  1.70e7                2 Luxur~  1.52e6 Bharat    Manhat~ Financial Di~ -74.0
    ## # ... with 11 more rows, and 10 more variables: long <dbl>, room_type <chr>,
    ## #   price <dbl>, minimum_nights <dbl>, number_of_reviews <dbl>,
    ## #   last_review <date>, reviews_per_month <dbl>,
    ## #   calculated_host_listings_count <dbl>, availability_365 <dbl>, stars <dbl>
…
    ## Warning: Removed 10037 rows containing missing values (geom_point).

<img src="case_study_i_files/figure-gfm/unnamed-chunk-8-1.png" width="90%" />

Price and neighborhood

``` r
nyc_airbnb %>% 
  group_by(neighbourhood) %>% 
  summarize(mean_price = mean(price, na.rm = T)) %>% 
  arrange(mean_price)
```

    ## # A tibble: 217 x 2
    ##    neighbourhood     mean_price
    ##    <chr>                  <dbl>
    ##  1 Little Neck             41.7
    ##  2 Schuylerville           42.6
    ##  3 Morris Heights          47.6
    ##  4 Mount Eden              49.3
    ##  5 Soundview               50.6
    ##  6 Claremont Village       51.6
    ##  7 Hunts Point             52.2
    ##  8 Baychester              54  
    ##  9 Rosebank                55  
    ## 10 Belmont                 55.4
    ## # ... with 207 more rows
…
